<?xml version="1.0" encoding="UTF-8"?>
<!DOCTYPE svg PUBLIC "-//W3C//DTD SVG 1.1//EN" "http://www.w3.org/Graphics/SVG/1.1/DTD/svg11.dtd">
<!-- Creator: CorelDRAW 2018 (64 Bit) -->
<svg xmlns="http://www.w3.org/2000/svg" xml:space="preserve" width="17px" height="12px" version="1.1" style="shape-rendering:geometricPrecision; text-rendering:geometricPrecision; image-rendering:optimizeQuality; fill-rule:evenodd; clip-rule:evenodd"
viewBox="0 0 1.302 0.909"
 xmlns:xlink="http://www.w3.org/1999/xlink">
 <defs>
  <style type="text/css">
   <![CDATA[
    .fil0 {fill:#9D9786;fill-rule:nonzero}
   ]]>
  </style>
 </defs>
 <g id="Camada_x0020_1">
  <metadata id="CorelCorpID_0Corel-Layer"/>
  <g id="_1770074621872">
   <path class="fil0" d="M1.271 0.908c0.001,0 0.001,0 0.002,-0.001 0,0 0.001,0 0.002,0 0,0 0.001,-0.001 0.001,-0.001 0.001,0 0.002,0 0.002,0 0.001,-0.001 0.001,-0.001 0.002,-0.001 0,0 0.001,-0.001 0.002,-0.001 0,0 0.001,-0.001 0.001,-0.001 0.001,0 0.001,-0.001 0.002,-0.001 0,0 0.001,-0.001 0.002,-0.001 0,-0.001 0,-0.001 0.001,-0.001 0.001,-0.001 0.002,-0.002 0.002,-0.002 0,-0.001 0.001,-0.001 0.001,-0.001 0,0 0,0 0,0 0.001,-0.001 0.002,-0.002 0.002,-0.003 0.001,0 0.001,-0.001 0.001,-0.001 0.001,-0.001 0.001,-0.001 0.002,-0.002 0,0 0,-0.001 0.001,-0.001 0,-0.001 0,-0.001 0.001,-0.002 0,-0.001 0,-0.001 0,-0.002 0.001,0 0.001,-0.001 0.001,-0.001 0,-0.001 0.001,-0.002 0.001,-0.002 0,-0.001 0,-0.001 0,-0.002 0.001,-0.001 0.001,-0.001 0.001,-0.002 0,0 0,-0.001 0,-0.002 0.001,0 0.001,-0.001 0.001,-0.002 0,0 0,-0.001 0,-0.001 0,-0.002 0,-0.003 0,-0.004l0 -0.831c0,-0.022 -0.017,-0.039 -0.039,-0.039l-1.224 0c0,0 -0.001,0 -0.001,0 -0.001,0 -0.002,0 -0.002,0 -0.001,0 -0.002,0 -0.002,0 -0.001,0 -0.001,0.001 -0.002,0.001 -0.001,0 -0.001,0 -0.002,0 -0.001,0 -0.001,0 -0.002,0.001 0,0 -0.001,0 -0.002,0 0,0 -0.001,0.001 -0.001,0.001 -0.001,0 -0.001,0 -0.002,0 -0.001,0.001 -0.001,0.001 -0.002,0.001 0,0.001 -0.001,0.001 -0.001,0.001 -0.001,0 -0.002,0.001 -0.002,0.001 -0.001,0.001 -0.001,0.001 -0.002,0.001 0,0.001 -0.001,0.001 -0.001,0.001 -0.001,0.001 -0.001,0.001 -0.002,0.002 0,0 -0.001,0 -0.001,0.001 -0.001,0 -0.001,0.001 -0.001,0.001 -0.001,0.001 -0.001,0.001 -0.001,0.001 0,0 0,0 -0.001,0.001 0,0 -0.001,0.001 -0.001,0.001 0,0.001 -0.001,0.001 -0.001,0.002 0,0 -0.001,0.001 -0.001,0.001 0,0.001 -0.001,0.001 -0.001,0.002 0,0 -0.001,0.001 -0.001,0.002 0,0 -0.001,0.001 -0.001,0.001 0,0.001 0,0.002 0,0.002 -0.001,0.001 -0.001,0.001 -0.001,0.002 0,0 0,0.001 -0.001,0.002 0,0 0,0.001 0,0.002 0,0 0,0.001 0,0.001 -0.001,0.001 -0.001,0.002 -0.001,0.002 0,0.001 0,0.001 0,0.002 0,0.001 0,0.002 0,0.002 0,0 0,0.001 0,0.001l0 0.24c0,0.021 0.017,0.038 0.039,0.038 0.021,0 0.039,-0.017 0.039,-0.038l0 -0.154 0.345 0.306c-0.001,0.001 -0.003,0.003 -0.005,0.004l-0.34 0.341 0 -0.354c0,-0.021 -0.018,-0.039 -0.039,-0.039 -0.022,0 -0.039,0.018 -0.039,0.039 0,0.134 0,0.119 0,0.448 0,0.021 0.017,0.039 0.039,0.039l1.224 0c0.002,0 0.003,0 0.004,-0.001 0.001,0 0.001,0 0.002,0 0.001,0 0.001,0 0.002,0zm-0.047 -0.132l-0.34 -0.341c0,0 0,0 -0.001,0l0.256 -0.217c0.017,-0.014 0.019,-0.039 0.005,-0.055 -0.014,-0.016 -0.039,-0.018 -0.055,-0.005l-0.437 0.371 -0.511 -0.451 1.083 0 0 0.698zm-0.751 -0.286c0.003,-0.002 0.005,-0.005 0.007,-0.009l0.145 0.129c0.008,0.006 0.017,0.01 0.026,0.01 0.009,0 0.018,-0.003 0.025,-0.009l0.148 -0.126c0.002,0.002 0.003,0.004 0.005,0.005l0.34 0.341 -1.036 0 0.34 -0.341z"/>
  </g>
 </g>
</svg>
